…
    ##   week_8 = col_double()
    ## )
    ## Parsed with column specification:
    ## cols(
    ##   week_1 = col_double(),
    ##   week_2 = col_double(),
    ##   week_3 = col_double(),
    ##   week_4 = col_double(),
    ##   week_5 = col_double(),
    ##   week_6 = col_double(),
    ##   week_7 = col_double(),
    ##   week_8 = col_double()
    ## )

    ## # A tibble: 160 x 3
    ##    files_name week  value
    ##    <chr>      <chr> <dbl>
    ##  1 con_01.csv 1      0.2 
    ##  2 con_02.csv 1      1.13
    ##  3 con_03.csv 1      1.77
    ##  4 con_04.csv 1      1.04
    ##  5 con_05.csv 1      0.47
    ##  6 con_06.csv 1      2.37
    ##  7 con_07.csv 1      0.03
    ##  8 con_08.csv 1     -0.08
    ##  9 con_09.csv 1      0.08
    ## 10 con_10.csv 1      2.14
    ## # ... with 150 more rows
…
